VCSinEDAPlayground/dump.vcd
$date
	Sat Jun 10 09:42:51 2023
$end

$version
	Synopsys VCS version S-2021.09
$end

$timescale
	100ps
$end

$comment Csum: 1 ba4088fc511b27cc $end


$scope module $unit $end
$upscope $end


$scope module cpu_rtl_pkg $end
$upscope $end


$scope module testbench_pkg $end
$upscope $end


$scope module cpu_test $end
$var reg 1 ! rst_ $end
$var reg 96 " testfile [96:1] $end
$var reg 3 # topcode [2:0] $end
$var reg 1 $ clk $end
$var reg 1 % alu_clk $end
$var reg 1 & cntrl_clk $end
$var reg 1 ' fetch $end
$var reg 1 ( master_clk $end
$var reg 1 ) count [3] $end
$var reg 1 * count [2] $end
$var reg 1 + count [1] $end
$var reg 1 , count [0] $end

$scope begin unnamed$$_vcs_7 $end
$upscope $end


$scope begin unnamed$$_vcs_0 $end
$upscope $end


$scope begin unnamed$$_vcs_1 $end
$upscope $end


$scope begin unnamed$$_vcs_2 $end
$upscope $end


$scope begin unnamed$$_vcs_3 $end
$upscope $end


$scope begin unnamed$$_vcs_4 $end
$upscope $end


$scope begin unnamed$$_vcs_5 $end
$upscope $end


$scope begin unnamed$$_vcs_6 $end
$upscope $end


$scope module intf $end
$var wire 1 - clk $end
$var wire 1 . cntrl_clk $end
$var wire 1 / fetch $end
$var wire 1 0 alu_clk $end
$var wire 1 1 rst_ $end
$var reg 1 2 halt $end
$var reg 1 3 load_ir $end
$var reg 5 4 pc_addr [4:0] $end
$upscope $end


$scope module cpu1 $end
$var reg 1 5 halt $end
$var reg 1 6 load_ir $end
$var reg 5 7 pc_addr_if [4:0] $end
$var reg 1 8 clk $end
$var reg 1 9 cntrl_clk $end
$var reg 1 : alu_clk $end
$var reg 1 ; fetch $end
$var reg 1 < rst_ $end
$var reg 8 = data_out [7:0] $end
$var reg 8 > alu_out [7:0] $end
$var reg 8 ? accum [7:0] $end
$var reg 8 @ ir_out [7:0] $end
$var reg 5 A pc_addr [4:0] $end
$var reg 5 B ir_addr [4:0] $end
$var reg 5 C addr [4:0] $end
$var reg 3 D opcode [2:0] $end
$var reg 1 E load_ac $end
$var reg 1 F mem_rd $end
$var reg 1 G mem_wr $end
$var reg 1 H inc_pc $end
$var reg 1 I load_pc $end
$var reg 1 J zero $end

$scope module ac $end
$var reg 8 ? out [7:0] $end
$var reg 8 > data [7:0] $end
$var wire 1 8 clk $end
$var wire 1 E enable $end
$var wire 1 < rst_ $end
$upscope $end


$scope module ir $end
$var reg 8 @ out [7:0] $end
$var reg 8 = data [7:0] $end
$var wire 1 8 clk $end
$var wire 1 6 enable $end
$var wire 1 < rst_ $end
$upscope $end


$scope module pc $end
$var reg 5 A count [4:0] $end
$var reg 5 B data [4:0] $end
$var wire 1 8 clk $end
$var wire 1 I load $end
$var wire 1 < rst_ $end
$var wire 1 H enable $end
$upscope $end


$scope module alu1 $end
$var reg 8 > out [7:0] $end
$var reg 1 J zero $end
$var reg 1 : clk $end
$var reg 8 ? accum [7:0] $end
$var reg 8 = data [7:0] $end
$var reg 3 D opcode [2:0] $end
$upscope $end


$scope module smx $end
$var reg 5 C out [4:0] $end
$var reg 5 A in_a [4:0] $end
$var reg 5 K in_b [4:0] $end
$var reg 1 ; sel_a $end
$upscope $end


$scope module mem1 $end
$var wire 1 L clk $end
$var wire 1 F read $end
$var wire 1 G write $end
$var reg 5 C addr [4:0] $end
$var reg 8 > data_in [7:0] $end
$var reg 8 = data_out [7:0] $end
$upscope $end


$scope module cntl $end
$var reg 1 E load_ac $end
$var reg 1 F mem_rd $end
$var reg 1 G mem_wr $end
$var reg 1 H inc_pc $end
$var reg 1 I load_pc $end
$var reg 1 6 load_ir $end
$var reg 1 5 halt $end
$var reg 3 D opcode [2:0] $end
$var wire 1 J zero $end
$var wire 1 9 clk $end
$var wire 1 < rst_ $end
$var reg 32 M state [31:0] $end
$var reg 1 N aluop $end
$upscope $end

$upscope $end

$upscope $end


$scope module uvm_pkg $end
$var reg 32 O UVM_UNBOUNDED_CONNECTIONS [31:0] $end
$var reg 1 P uvm_start_uvm_declarations $end
$var time 64 Q setting_offset $end
$var reg 32 R setting_verbosity [31:0] $end
$var reg 1 S is_verdi_set_verbosity_called $end
$var reg 32 T uvm_global_random_seed [31:0] $end
$upscope $end

$enddefinitions $end

#0
$dumpvars
0S
1P
bxxxxxxxxxxxxxxxxxxxxxxxxxxxxxxxxxxxxxxxxxxxxxxxxxxxxxxxxxxxxxxxx Q
b11111111111111111111111111111111 O
b00000000000000000000000000000000 R
b01000010000001111100110001000111 T
x,
x+
x*
x)
1(
1!
b010100000101010101110100011001010111001101110100001100000011000100101110011001000110000101110100 "
bxxx #
bxxxxx 4
xN
05
0H
0E
06
0I
0F
0G
xJ
bxxxxxxxx ?
bxxxxx C
bxxxxxxxx >
bxxxxxxxx =
bxxxxx K
bxxxxxxxx @
bxxx D
bxxxxx A
bxxxxx 7
bxxxxx B
b00000000000000000000000000000000 M
x:
x8
x9
x;
1<
x$
x-
x0
x.
x/
11
x%
x&
x'
02
03
xL
$end
#50
0(
#100
1(
#150
0(
0!
01
0<
0)
1'
0*
0+
0$
0,
1&
b00000000 ?
b00000000 @
b00000 B
b000 D
b00000 K
b00000 A
b00000 7
b00000 4
1%
1/
1;
0-
08
1.
19
0L
1J
0N
b00000 C
10
1:
#200
1(
#250
0(
#300
1(
#350
0(
1!
11
1<
#400
1(
1,
0&
0.
09
1L
#450
0(
#500
1(
1+
1$
0,
1&
1-
18
1.
19
0L
b00000000000000000000000000000001 M
1F
#550
0(
#600
1(
1,
0&
0.
09
1L
#650
0(
#700
1(
1*
0+
0$
0,
1&
0-
08
1.
19
0L
b00000000000000000000000000000010 M
16
13
#750
0(
#800
1(
1,
0&
0.
09
1L
#850
0(
#900
1(
1+
1$
0,
1&
1-
18
1.
19
0L
bxxxxxxxx @
bxxxxx B
bxxx D
bxxxxx K
b00000000000000000000000000000011 M
xN
#950
0(
#1000
1(
1,
0&
0.
09
1L
#1050
0(
#1100
1(
1)
0'
0*
0+
0$
0,
1&
0/
0;
0-
08
1.
19
0L
bxxxxx C
b00000000000000000000000000000100 M
0F
06
03
x5
x2
1H
#1150
0(
#1200
1(
1,
0&
0.
09
1L
#1250
0(
#1300
1(
1+
1$
0,
1&
1-
18
1.
19
0L
b00001 A
b00001 7
b00001 4
b00000000000000000000000000000101 M
xF
05
02
0H
#1350
0(
#1400
1(
1,
0&
0.
09
1L
#1450
0(
#1500
1(
1*
0+
0$
0,
1&
0-
08
0%
1.
19
0L
00
0:
b00000000000000000000000000000110 M
xH
xE
xI
#1550
0(
#1600
1(
1,
0&
1%
0.
09
1L
10
1:
#1650
0(
#1700
1(
1+
1$
0,
1&
1-
18
1.
19
0L
b00000000000000000000000000000111 M
xG
#1750
0(
#1800
1(
1,
0&
0.
09
1L
#1850
0(
#1900
1(
0)
1'
0*
0+
0$
0,
1&
1/
1;
0-
08
1.
19
0L
b00001 C
b00000000000000000000000000000000 M
0F
0H
0E
0I
0G
#1950
0(
#2000
1(
1,
0&
0.
09
1L
#2050
0(
#2100
1(
1+
1$
0,
1&
1-
18
1.
19
0L
b00000000000000000000000000000001 M
1F
#2150
0(
#2200
1(
1,
0&
0.
09
1L
#2250
0(
#2300
1(
1*
0+
0$
0,
1&
0-
08
1.
19
0L
b00000000000000000000000000000010 M
16
13
#2350
0(
#2400
1(
1,
0&
0.
09
1L
#2450
0(
#2500
1(
1+
1$
0,
1&
1-
18
1.
19
0L
b00000000000000000000000000000011 M
#2550
0(
#2600
1(
1,
0&
0.
09
1L
#2650
0(
#2700
1(
1)
0'
0*
0+
0$
0,
1&
0/
0;
0-
08
1.
19
0L
bxxxxx C
b00000000000000000000000000000100 M
0F
06
03
x5
x2
1H
#2750
0(
#2800
1(
1,
0&
0.
09
1L
#2850
0(
#2900
1(
1+
1$
0,
1&
1-
18
1.
19
0L
b00010 A
b00010 7
b00010 4
b00000000000000000000000000000101 M
xF
05
02
0H
#2950
0(
#3000
1(
1,
0&
0.
09
1L
#3050
0(
#3100
1(
1*
0+
0$
0,
1&
0-
08
0%
1.
19
0L
00
0:
b00000000000000000000000000000110 M
xH
xE
xI
#3150
0(
#3200
1(
1,
0&
1%
0.
09
1L
10
1:
#3250
0(
#3300
1(
1+
1$
0,
1&
1-
18
1.
19
0L
b00000000000000000000000000000111 M
xG
#3350
0(
#3400
1(
1,
0&
0.
09
1L
#3450
0(
#3500
1(
0)
1'
0*
0+
0$
0,
1&
1/
1;
0-
08
1.
19
0L
b00010 C
b00000000000000000000000000000000 M
0F
0H
0E
0I
0G
#3550
0(
#3600
1(
1,
0&
0.
09
1L
#3650
0(
#3700
1(
1+
1$
0,
1&
1-
18
1.
19
0L
b00000000000000000000000000000001 M
1F
#3750
0(
#3800
1(
1,
0&
0.
09
1L
#3850
0(
#3900
1(
1*
0+
0$
0,
1&
0-
08
1.
19
0L
b00000000000000000000000000000010 M
16
13
#3950
0(
#4000
1(
1,
0&
0.
09
1L
#4050
0(
#4100
1(
1+
1$
0,
1&
1-
18
1.
19
0L
b00000000000000000000000000000011 M
#4150
0(
#4200
1(
1,
0&
0.
09
1L
#4250
0(
#4300
1(
1)
0'
0*
0+
0$
0,
1&
0/
0;
0-
08
1.
19
0L
bxxxxx C
b00000000000000000000000000000100 M
0F
06
03
x5
x2
1H
#4350
0(
#4400
1(
1,
0&
0.
09
1L
#4450
0(
#4500
1(
1+
1$
0,
1&
1-
18
1.
19
0L
b00011 A
b00011 7
b00011 4
b00000000000000000000000000000101 M
xF
05
02
0H
#4550
0(
#4600
1(
1,
0&
0.
09
1L
#4650
0(
#4700
1(
1*
0+
0$
0,
1&
0-
08
0%
1.
19
0L
00
0:
b00000000000000000000000000000110 M
xH
xE
xI
#4750
0(
#4800
1(
1,
0&
1%
0.
09
1L
10
1:
#4850
0(
#4900
1(
1+
1$
0,
1&
1-
18
1.
19
0L
b00000000000000000000000000000111 M
xG
#4950
0(
#5000
1(
1,
0&
0.
09
1L
#5050
0(
#5100
1(
0)
1'
0*
0+
0$
0,
1&
1/
1;
0-
08
1.
19
0L
b00011 C
b00000000000000000000000000000000 M
0F
0H
0E
0I
0G
#5150
0(
#5200
1(
1,
0&
0.
09
1L
#5250
0(
#5300
1(
1+
1$
0,
1&
1-
18
1.
19
0L
b00000000000000000000000000000001 M
1F
#5350
0(
#5400
1(
1,
0&
0.
09
1L
#5450
0(
#5500
1(
1*
0+
0$
0,
1&
0-
08
1.
19
0L
b00000000000000000000000000000010 M
16
13
#5550
0(
#5600
1(
1,
0&
0.
09
1L
#5650
0(
#5700
1(
1+
1$
0,
1&
1-
18
1.
19
0L
b00000000000000000000000000000011 M
#5750
0(
#5800
1(
1,
0&
0.
09
1L
#5850
0(
#5900
1(
1)
0'
0*
0+
0$
0,
1&
0/
0;
0-
08
1.
19
0L
bxxxxx C
b00000000000000000000000000000100 M
0F
06
03
x5
x2
1H
#5950
0(
#6000
1(
1,
0&
0.
09
1L
#6050
0(
#6100
1(
1+
1$
0,
1&
1-
18
1.
19
0L
b00100 A
b00100 7
b00100 4
b00000000000000000000000000000101 M
xF
05
02
0H
#6150
0(
#6200
1(
1,
0&
0.
09
1L
#6250
0(
#6300
1(
1*
0+
0$
0,
1&
0-
08
0%
1.
19
0L
00
0:
b00000000000000000000000000000110 M
xH
xE
xI
#6350
0(
#6400
1(
1,
0&
1%
0.
09
1L
10
1:
#6450
0(
#6500
1(
1+
1$
0,
1&
1-
18
1.
19
0L
b00000000000000000000000000000111 M
xG
#6550
0(
#6600
1(
1,
0&
0.
09
1L
#6650
0(
#6700
1(
0)
1'
0*
0+
0$
0,
1&
1/
1;
0-
08
1.
19
0L
b00100 C
b00000000000000000000000000000000 M
0F
0H
0E
0I
0G
#6750
0(
#6800
1(
1,
0&
0.
09
1L
#6850
0(
#6900
1(
1+
1$
0,
1&
1-
18
1.
19
0L
b00000000000000000000000000000001 M
1F
#6950
0(
#7000
1(
1,
0&
0.
09
1L
#7050
0(
#7100
1(
1*
0+
0$
0,
1&
0-
08
1.
19
0L
b00000000000000000000000000000010 M
16
13
#7150
0(
#7200
1(
1,
0&
0.
09
1L
#7250
0(
#7300
1(
1+
1$
0,
1&
1-
18
1.
19
0L
b00000000000000000000000000000011 M
#7350
0(
#7400
1(
1,
0&
0.
09
1L
#7450
0(
#7500
1(
1)
0'
0*
0+
0$
0,
1&
0/
0;
0-
08
1.
19
0L
bxxxxx C
b00000000000000000000000000000100 M
0F
06
03
x5
x2
1H
#7550
0(
#7600
1(
1,
0&
0.
09
1L
#7650
0(
#7700
1(
1+
1$
0,
1&
1-
18
1.
19
0L
b00101 A
b00101 7
b00101 4
b00000000000000000000000000000101 M
xF
05
02
0H
#7750
0(
#7800
1(
1,
0&
0.
09
1L
#7850
0(
#7900
1(
1*
0+
0$
0,
1&
0-
08
0%
1.
19
0L
00
0:
b00000000000000000000000000000110 M
xH
xE
xI
#7950
0(
#8000
1(
1,
0&
1%
0.
09
1L
10
1:
#8050
0(
#8100
1(
1+
1$
0,
1&
1-
18
1.
19
0L
b00000000000000000000000000000111 M
xG
#8150
0(
#8200
1(
1,
0&
0.
09
1L
#8250
0(
#8300
1(
0)
1'
0*
0+
0$
0,
1&
1/
1;
0-
08
1.
19
0L
b00101 C
b00000000000000000000000000000000 M
0F
0H
0E
0I
0G
#8350
0(
#8400
1(
1,
0&
0.
09
1L
#8450
0(
#8500
1(
1+
1$
0,
1&
1-
18
1.
19
0L
b00000000000000000000000000000001 M
1F
#8550
0(
#8600
1(
1,
0&
0.
09
1L
#8650
0(
#8700
1(
1*
0+
0$
0,
1&
0-
08
1.
19
0L
b00000000000000000000000000000010 M
16
13
#8750
0(
#8800
1(
1,
0&
0.
09
1L
#8850
0(
#8900
1(
1+
1$
0,
1&
1-
18
1.
19
0L
b00000000000000000000000000000011 M
#8950
0(
#9000
1(
1,
0&
0.
09
1L
#9050
0(
#9100
1(
1)
0'
0*
0+
0$
0,
1&
0/
0;
0-
08
1.
19
0L
bxxxxx C
b00000000000000000000000000000100 M
0F
06
03
x5
x2
1H
#9150
0(
#9200
1(
1,
0&
0.
09
1L
#9250
0(
#9300
1(
1+
1$
0,
1&
1-
18
1.
19
0L
b00110 A
b00110 7
b00110 4
b00000000000000000000000000000101 M
xF
05
02
0H
#9350
0(
#9400
1(
1,
0&
0.
09
1L
#9450
0(
#9500
1(
1*
0+
0$
0,
1&
0-
08
0%
1.
19
0L
00
0:
b00000000000000000000000000000110 M
xH
xE
xI
#9550
0(
#9600
1(
1,
0&
1%
0.
09
1L
10
1:
#9650
0(
#9700
1(
1+
1$
0,
1&
1-
18
1.
19
0L
b00000000000000000000000000000111 M
xG
#9750
0(
#9800
1(
1,
0&
0.
09
1L
#9850
0(
#9900
1(
0)
1'
0*
0+
0$
0,
1&
1/
1;
0-
08
1.
19
0L
b00110 C
b00000000000000000000000000000000 M
0F
0H
0E
0I
0G
#9950
0(
#10000
1(
1,
0&
0.
09
1L
#10050
0(
#10100
1(
1+
1$
0,
1&
1-
18
1.
19
0L
b00000000000000000000000000000001 M
1F
#10150
0(
#10200
1(
1,
0&
0.
09
1L
#10250
0(
#10300
1(
1*
0+
0$
0,
1&
0-
08
1.
19
0L
b00000000000000000000000000000010 M
16
13
#10350
0(
#10400
1(
1,
0&
0.
09
1L
#10450
0(
#10500
1(
1+
1$
0,
1&
1-
18
1.
19
0L
b00000000000000000000000000000011 M
#10550
0(
#10600
1(
1,
0&
0.
09
1L
#10650
0(
#10700
1(
1)
0'
0*
0+
0$
0,
1&
0/
0;
0-
08
1.
19
0L
bxxxxx C
b00000000000000000000000000000100 M
0F
06
03
x5
x2
1H
#10750
0(
#10800
1(
1,
0&
0.
09
1L
#10850
0(
#10900
1(
1+
1$
0,
1&
1-
18
1.
19
0L
b00111 A
b00111 7
b00111 4
b00000000000000000000000000000101 M
xF
05
02
0H
#10950
0(
#11000
1(
1,
0&
0.
09
1L
#11050
0(
#11100
1(
1*
0+
0$
0,
1&
0-
08
0%
1.
19
0L
00
0:
b00000000000000000000000000000110 M
xH
xE
xI
#11150
0(
#11200
1(
1,
0&
1%
0.
09
1L
10
1:
#11250
0(
#11300
1(
1+
1$
0,
1&
1-
18
1.
19
0L
b00000000000000000000000000000111 M
xG
#11350
0(
#11400
1(
1,
0&
0.
09
1L
#11450
0(
#11500
1(
0)
1'
0*
0+
0$
0,
1&
1/
1;
0-
08
1.
19
0L
b00111 C
b00000000000000000000000000000000 M
0F
0H
0E
0I
0G
#11550
0(
#11600
1(
1,
0&
0.
09
1L
#11650
0(
#11700
1(
1+
1$
0,
1&
1-
18
1.
19
0L
b00000000000000000000000000000001 M
1F
#11750
0(
#11800
1(
1,
0&
0.
09
1L
#11850
0(
#11900
1(
1*
0+
0$
0,
1&
0-
08
1.
19
0L
b00000000000000000000000000000010 M
16
13
#11950
0(
#12000
1(
1,
0&
0.
09
1L
#12050
0(
#12100
1(
1+
1$
0,
1&
1-
18
1.
19
0L
b00000000000000000000000000000011 M
#12150
0(
#12200
1(
1,
0&
0.
09
1L
#12250
0(
#12300
1(
1)
0'
0*
0+
0$
0,
1&
0/
0;
0-
08
1.
19
0L
bxxxxx C
b00000000000000000000000000000100 M
0F
06
03
x5
x2
1H
#12350
0(
#12400
1(
1,
0&
0.
09
1L
#12450
0(
#12500
1(
1+
1$
0,
1&
1-
18
1.
19
0L
b01000 A
b01000 7
b01000 4
b00000000000000000000000000000101 M
xF
05
02
0H
#12550
0(
#12600
1(
1,
0&
0.
09
1L
#12650
0(
#12700
1(
1*
0+
0$
0,
1&
0-
08
0%
1.
19
0L
00
0:
b00000000000000000000000000000110 M
xH
xE
xI
#12750
0(
#12800
1(
1,
0&
1%
0.
09
1L
10
1:
#12850
0(
#12900
1(
1+
1$
0,
1&
1-
18
1.
19
0L
b00000000000000000000000000000111 M
xG
#12950
0(
#13000
1(
1,
0&
0.
09
1L
#13050
0(
#13100
1(
0)
1'
0*
0+
0$
0,
1&
1/
1;
0-
08
1.
19
0L
b01000 C
b00000000000000000000000000000000 M
0F
0H
0E
0I
0G
#13150
0(
#13200
1(
1,
0&
0.
09
1L
#13250
0(
#13300
1(
1+
1$
0,
1&
1-
18
1.
19
0L
b00000000000000000000000000000001 M
1F
#13350
0(
#13400
1(
1,
0&
0.
09
1L
#13450
0(
#13500
1(
1*
0+
0$
0,
1&
0-
08
1.
19
0L
b00000000000000000000000000000010 M
16
13
#13550
0(
#13600
1(
1,
0&
0.
09
1L
#13650
0(
#13700
1(
1+
1$
0,
1&
1-
18
1.
19
0L
b00000000000000000000000000000011 M
#13750
0(
#13800
1(
1,
0&
0.
09
1L
#13850
0(
#13900
1(
1)
0'
0*
0+
0$
0,
1&
0/
0;
0-
08
1.
19
0L
bxxxxx C
b00000000000000000000000000000100 M
0F
06
03
x5
x2
1H
#13950
0(
#14000
1(
1,
0&
0.
09
1L
#14050
0(
#14100
1(
1+
1$
0,
1&
1-
18
1.
19
0L
b01001 A
b01001 7
b01001 4
b00000000000000000000000000000101 M
xF
05
02
0H
#14150
0(
#14200
1(
1,
0&
0.
09
1L
#14250
0(
#14300
1(
1*
0+
0$
0,
1&
0-
08
0%
1.
19
0L
00
0:
b00000000000000000000000000000110 M
xH
xE
xI
#14350
0(
#14400
1(
1,
0&
1%
0.
09
1L
10
1:
#14450
0(
#14500
1(
1+
1$
0,
1&
1-
18
1.
19
0L
b00000000000000000000000000000111 M
xG
#14550
0(
#14600
1(
1,
0&
0.
09
1L
#14650
0(
#14700
1(
0)
1'
0*
0+
0$
0,
1&
1/
1;
0-
08
1.
19
0L
b01001 C
b00000000000000000000000000000000 M
0F
0H
0E
0I
0G
#14750
0(
#14800
1(
1,
0&
0.
09
1L
#14850
0(
#14900
1(
1+
1$
0,
1&
1-
18
1.
19
0L
b00000000000000000000000000000001 M
1F
#14950
0(
#15000
1(
1,
0&
0.
09
1L
#15050
0(
#15100
1(
1*
0+
0$
0,
1&
0-
08
1.
19
0L
b00000000000000000000000000000010 M
16
13
#15150
0(
#15200
1(
1,
0&
0.
09
1L
#15250
0(
#15300
1(
1+
1$
0,
1&
1-
18
1.
19
0L
b00000000000000000000000000000011 M
#15350
0(
#15400
1(
1,
0&
0.
09
1L
#15450
0(
#15500
1(
1)
0'
0*
0+
0$
0,
1&
0/
0;
0-
08
1.
19
0L
bxxxxx C
b00000000000000000000000000000100 M
0F
06
03
x5
x2
1H
#15550
0(
#15600
1(
1,
0&
0.
09
1L
#15650
0(
#15700
1(
1+
1$
0,
1&
1-
18
1.
19
0L
b01010 A
b01010 7
b01010 4
b00000000000000000000000000000101 M
xF
05
02
0H
#15750
0(
#15800
1(
1,
0&
0.
09
1L
#15850
0(
#15900
1(
1*
0+
0$
0,
1&
0-
08
0%
1.
19
0L
00
0:
b00000000000000000000000000000110 M
xH
xE
xI
#15950
0(
#16000
1(
1,
0&
1%
0.
09
1L
10
1:
#16050
0(
#16100
1(
1+
1$
0,
1&
1-
18
1.
19
0L
b00000000000000000000000000000111 M
xG
#16150
0(
#16200
1(
1,
0&
0.
09
1L
#16250
0(
#16300
1(
0)
1'
0*
0+
0$
0,
1&
1/
1;
0-
08
1.
19
0L
b01010 C
b00000000000000000000000000000000 M
0F
0H
0E
0I
0G
#16350
0(
#16400
1(
1,
0&
0.
09
1L
#16450
0(
#16500
1(
1+
1$
0,
1&
1-
18
1.
19
0L
b00000000000000000000000000000001 M
1F
#16550
0(
#16600
1(
1,
0&
0.
09
1L
#16650
0(
#16700
1(
1*
0+
0$
0,
1&
0-
08
1.
19
0L
b00000000000000000000000000000010 M
16
13
#16750
0(
#16800
1(
1,
0&
0.
09
1L
#16850
0(
#16900
1(
1+
1$
0,
1&
1-
18
1.
19
0L
b00000000000000000000000000000011 M
#16950
0(
#17000
1(
1,
0&
0.
09
1L
#17050
0(
#17100
1(
1)
0'
0*
0+
0$
0,
1&
0/
0;
0-
08
1.
19
0L
bxxxxx C
b00000000000000000000000000000100 M
0F
06
03
x5
x2
1H
#17150
0(
#17200
1(
1,
0&
0.
09
1L
#17250
0(
#17300
1(
1+
1$
0,
1&
1-
18
1.
19
0L
b01011 A
b01011 7
b01011 4
b00000000000000000000000000000101 M
xF
05
02
0H
#17350
0(
#17400
1(
1,
0&
0.
09
1L
#17450
0(
#17500
1(
1*
0+
0$
0,
1&
0-
08
0%
1.
19
0L
00
0:
b00000000000000000000000000000110 M
xH
xE
xI
#17550
0(
#17600
1(
1,
0&
1%
0.
09
1L
10
1:
#17650
0(
#17700
1(
1+
1$
0,
1&
1-
18
1.
19
0L
b00000000000000000000000000000111 M
xG
#17750
0(
#17800
1(
1,
0&
0.
09
1L
#17850
0(
#17900
1(
0)
1'
0*
0+
0$
0,
1&
1/
1;
0-
08
1.
19
0L
b01011 C
b00000000000000000000000000000000 M
0F
0H
0E
0I
0G
#17950
0(
#18000
1(
1,
0&
0.
09
1L
#18050
0(
#18100
1(
1+
1$
0,
1&
1-
18
1.
19
0L
b00000000000000000000000000000001 M
1F
#18150
0(
#18200
1(
1,
0&
0.
09
1L
#18250
0(
#18300
1(
1*
0+
0$
0,
1&
0-
08
1.
19
0L
b00000000000000000000000000000010 M
16
13
#18350
0(
#18400
1(
1,
0&
0.
09
1L
#18450
0(
#18500
1(
1+
1$
0,
1&
1-
18
1.
19
0L
b00000000000000000000000000000011 M
#18550
0(
#18600
1(
1,
0&
0.
09
1L
#18650
0(
#18700
1(
1)
0'
0*
0+
0$
0,
1&
0/
0;
0-
08
1.
19
0L
bxxxxx C
b00000000000000000000000000000100 M
0F
06
03
x5
x2
1H
#18750
0(
#18800
1(
1,
0&
0.
09
1L
#18850
0(
#18900
1(
1+
1$
0,
1&
1-
18
1.
19
0L
b01100 A
b01100 7
b01100 4
b00000000000000000000000000000101 M
xF
05
02
0H
#18950
0(
#19000
1(
1,
0&
0.
09
1L
#19050
0(
#19100
1(
1*
0+
0$
0,
1&
0-
08
0%
1.
19
0L
00
0:
b00000000000000000000000000000110 M
xH
xE
xI
#19150
0(
#19200
1(
1,
0&
1%
0.
09
1L
10
1:
#19250
0(
#19300
1(
1+
1$
0,
1&
1-
18
1.
19
0L
b00000000000000000000000000000111 M
xG
#19350
0(
#19400
1(
1,
0&
0.
09
1L
#19450
0(
#19500
1(
0)
1'
0*
0+
0$
0,
1&
1/
1;
0-
08
1.
19
0L
b01100 C
b00000000000000000000000000000000 M
0F
0H
0E
0I
0G
#19550
0(
#19600
1(
1,
0&
0.
09
1L
#19650
0(
#19700
1(
1+
1$
0,
1&
1-
18
1.
19
0L
b00000000000000000000000000000001 M
1F
#19750
0(
#19800
1(
1,
0&
0.
09
1L
#19850
0(
#19900
1(
1*
0+
0$
0,
1&
0-
08
1.
19
0L
b00000000000000000000000000000010 M
16
13
#19950
0(
#20000
1(
1,
0&
0.
09
1L
#20050
0(
#20100
1(
1+
1$
0,
1&
1-
18
1.
19
0L
b00000000000000000000000000000011 M
#20150
0(
#20200
1(
1,
0&
0.
09
1L
#20250
0(
#20300
1(
1)
0'
0*
0+
0$
0,
1&
0/
0;
0-
08
1.
19
0L
bxxxxx C
b00000000000000000000000000000100 M
0F
06
03
x5
x2
1H
#20350
0(
#20400
1(
1,
0&
0.
09
1L
#20450
0(
#20500
1(
1+
1$
0,
1&
1-
18
1.
19
0L
b01101 A
b01101 7
b01101 4
b00000000000000000000000000000101 M
xF
05
02
0H
#20550
0(
#20600
1(
1,
0&
0.
09
1L
#20650
0(
#20700
1(
1*
0+
0$
0,
1&
0-
08
0%
1.
19
0L
00
0:
b00000000000000000000000000000110 M
xH
xE
xI
#20750
0(
#20800
1(
1,
0&
1%
0.
09
1L
10
1:
#20850
0(
#20900
1(
1+
1$
0,
1&
1-
18
1.
19
0L
b00000000000000000000000000000111 M
xG
#20950
0(
#21000
1(
1,
0&
0.
09
1L
#21050
0(
#21100
1(
0)
1'
0*
0+
0$
0,
1&
1/
1;
0-
08
1.
19
0L
b01101 C
b00000000000000000000000000000000 M
0F
0H
0E
0I
0G
#21150
0(
#21200
1(
1,
0&
0.
09
1L
#21250
0(
#21300
1(
1+
1$
0,
1&
1-
18
1.
19
0L
b00000000000000000000000000000001 M
1F
#21350
0(
#21400
1(
1,
0&
0.
09
1L
#21450
0(
#21500
1(
1*
0+
0$
0,
1&
0-
08
1.
19
0L
b00000000000000000000000000000010 M
16
13
#21550
0(
#21600
1(
1,
0&
0.
09
1L
#21650
0(
#21700
1(
1+
1$
0,
1&
1-
18
1.
19
0L
b00000000000000000000000000000011 M
#21750
0(
#21800
1(
1,
0&
0.
09
1L
#21850
0(
#21900
1(
1)
0'
0*
0+
0$
0,
1&
0/
0;
0-
08
1.
19
0L
bxxxxx C
b00000000000000000000000000000100 M
0F
06
03
x5
x2
1H
#21950
0(
#22000
1(
1,
0&
0.
09
1L
#22050
0(
#22100
1(
1+
1$
0,
1&
1-
18
1.
19
0L
b01110 A
b01110 7
b01110 4
b00000000000000000000000000000101 M
xF
05
02
0H
#22150
0(
#22200
1(
1,
0&
0.
09
1L
#22250
0(
#22300
1(
1*
0+
0$
0,
1&
0-
08
0%
1.
19
0L
00
0:
b00000000000000000000000000000110 M
xH
xE
xI
#22350
0(
#22400
1(
1,
0&
1%
0.
09
1L
10
1:
#22450
0(
#22500
1(
1+
1$
0,
1&
1-
18
1.
19
0L
b00000000000000000000000000000111 M
xG
#22550
0(
#22600
1(
1,
0&
0.
09
1L
#22650
0(
#22700
1(
0)
1'
0*
0+
0$
0,
1&
1/
1;
0-
08
1.
19
0L
b01110 C
b00000000000000000000000000000000 M
0F
0H
0E
0I
0G
#22750
0(
#22800
1(
1,
0&
0.
09
1L
#22850
0(
#22900
1(
1+
1$
0,
1&
1-
18
1.
19
0L
b00000000000000000000000000000001 M
1F
#22950
0(
#23000
1(
1,
0&
0.
09
1L
#23050
0(
#23100
1(
1*
0+
0$
0,
1&
0-
08
1.
19
0L
b00000000000000000000000000000010 M
16
13
#23150
0(
#23200
1(
1,
0&
0.
09
1L
#23250
0(
#23300
1(
1+
1$
0,
1&
1-
18
1.
19
0L
b00000000000000000000000000000011 M
#23350
0(
#23400
1(
1,
0&
0.
09
1L
#23450
0(
#23500
1(
1)
0'
0*
0+
0$
0,
1&
0/
0;
0-
08
1.
19
0L
bxxxxx C
b00000000000000000000000000000100 M
0F
06
03
x5
x2
1H
#23550
0(
#23600
1(
1,
0&
0.
09
1L
#23650
0(
#23700
1(
1+
1$
0,
1&
1-
18
1.
19
0L
b01111 A
b01111 7
b01111 4
b00000000000000000000000000000101 M
xF
05
02
0H
#23750
0(
#23800
1(
1,
0&
0.
09
1L
#23850
0(
#23900
1(
1*
0+
0$
0,
1&
0-
08
0%
1.
19
0L
00
0:
b00000000000000000000000000000110 M
xH
xE
xI
#23950
0(
#24000
1(
1,
0&
1%
0.
09
1L
10
1:
#24050
0(
#24100
1(
1+
1$
0,
1&
1-
18
1.
19
0L
b00000000000000000000000000000111 M
xG
#24150
0(
#24200
1(
1,
0&
0.
09
1L
#24250
0(
#24300
1(
0)
1'
0*
0+
0$
0,
1&
1/
1;
0-
08
1.
19
0L
b01111 C
b00000000000000000000000000000000 M
0F
0H
0E
0I
0G
#24350
0(
#24400
1(
1,
0&
0.
09
1L
#24450
0(
#24500
1(
1+
1$
0,
1&
1-
18
1.
19
0L
b00000000000000000000000000000001 M
1F
#24550
0(
#24600
1(
1,
0&
0.
09
1L
#24650
0(
#24700
1(
1*
0+
0$
0,
1&
0-
08
1.
19
0L
b00000000000000000000000000000010 M
16
13
#24750
0(
#24800
1(
1,
0&
0.
09
1L
#24850
0(
#24900
1(
1+
1$
0,
1&
1-
18
1.
19
0L
b00000000000000000000000000000011 M
#24950
0(
